Cube root/simulation/modelsim/dump.vcd
$date
	Tue Dec 01 16:34:21 2020
$end
$version
	ModelSim Version 10.5b
$end
$timescale
	1ps
$end

$scope module testbench $end
$var reg 8 ! in1 [0:7] $end
$var wire 1 " out $end
$var wire 1 # out2 $end
$var wire 1 $ out3 $end
$var wire 1 % out4 $end

$scope module cr $end
$var wire 1 & number [0] $end
$var wire 1 ' number [1] $end
$var wire 1 ( number [2] $end
$var wire 1 ) number [3] $end
$var wire 1 * number [4] $end
$var wire 1 + number [5] $end
$var wire 1 , number [6] $end
$var wire 1 - number [7] $end
$var reg 1 . HEX0 $end
$var reg 1 / HEX1 $end
$var reg 1 0 HEX2 $end
$var reg 1 1 HEX3 $end
$var reg 8 2 result [0:7] $end
$var reg 8 3 result_rat [0:7] $end

$scope begin block_0 $end
$var reg 32 4 x [31:0] $end
$var integer 32 5 s $end
$var integer 32 6 y $end
$var integer 32 7 b $end
$var integer 32 8 i $end

$scope begin block_calc $end

$scope begin block_1 $end
$upscope $end
$upscope $end

$scope begin block_if_1 $end
$upscope $end
$upscope $end

$scope function get_number $end
$upscope $end
$upscope $end
$upscope $end
$enddefinitions $end
#0
$dumpvars
b1111111 !
x.
1/
00
01
b101 2
b10 3
b1111000100110101000 4
b11111111111111111111111111111101 5
b111110110 6
b10111000111100001111 7
bx 8
x"
1#
0$
0%
1-
1,
1+
1*
1)
1(
1'
0&
$end
#5
b1011010 !
0-
0+
0(
b1011010 4
b101010111010100101010000000 4
b0 6
b11110 5
b1000000000000000000000000000000 7
b11011 5
b1000000000000000000000000000 7
b11000 5
b1000000000000000000000000 7
b100010111010100101010000000 4
b1 6
b10101 5
b10 6
b10011000000000000000000000 7
b1111111010100101010000000 4
b11 6
b10010 5
b110 6
b1111111000000000000000000 7
b10100101010000000 4
b111 6
b1111 5
b1110 6
b1001110111000000000000000 7
b1100 5
b11100 6
b100110000101000000000000 7
b1001 5
b111000 6
b10010101101001000000000 7
b110 5
b1110000 6
b1001010001010001000000 7
b11 5
b11100000 6
b100100111010100001000 7
b0 5
b111000000 6
b10010011010101000001 7
b11111111111111111111111111111101 5
b100 2
b110000 3
#10
b11 !
1-
0*
0)
0'
b11 4
b1011011100011011000000 4
b0 6
b11110 5
b1000000000000000000000000000000 7
b11011 5
b1000000000000000000000000000 7
b11000 5
b1000000000000000000000000 7
b10101 5
b1000000000000000000000 7
b11011100011011000000 4
b1 6
b10010 5
b10 6
b10011000000000000000000 7
b1111 5
b100 6
b111101000000000000000 7
b1100 5
b1000 6
b11011001000000000000 7
b11011011000000 4
b1001 6
b1001 5
b10010 6
b10000000011000000000 7
b110 5
b100100 6
b111110011101000000 7
b11 5
b1001000 6
b11110110011001000 7
b0 5
b10010000 6
b1111010010110001 7
b11111111111111111111111111111101 5
b1 2
b101100 3
#15
b110 !
0-
1+
b110 4
b10110111000110110000000 4
b0 6
b11110 5
b1000000000000000000000000000000 7
b11011 5
b1000000000000000000000000000 7
b11000 5
b1000000000000000000000000 7
b10101 5
b1000000000000000000000 7
b1110111000110110000000 4
b1 6
b10010 5
b10 6
b10011000000000000000000 7
b1111 5
b100 6
b111101000000000000000 7
b111010000110110000000 4
b101 6
b1100 5
b1010 6
b101001011000000000000 7
b10000101110110000000 4
b1011 6
b1001 5
b10110 6
b10111101111000000000 7
b110 5
b101100 6
b1011100110101000000 7
b101001000001000000 4
b101101 6
b11 5
b1011010 6
b101111111111011000 7
b0 5
b10110100 6
b10111110111001101 7
b10001001001110011 4
b10110101 6
b11111111111111111111111111111101 5
b1010001 3
#20
b1111 !
1-
1*
b1111 4
b111001001110000111000000 4
b0 6
b11110 5
b1000000000000000000000000000000 7
b11011 5
b1000000000000000000000000000 7
b11000 5
b1000000000000000000000000 7
b10101 5
b1000000000000000000000 7
b110001001110000111000000 4
b1 6
b10010 5
b10 6
b10011000000000000000000 7
b11110001110000111000000 4
b11 6
b1111 5
b110 6
b1111111000000000000000 7
b1110010110000111000000 4
b111 6
b1100 5
b1110 6
b1001110111000000000000 7
b100011111000111000000 4
b1111 6
b1001 5
b11110 6
b101011100111000000000 7
b110 5
b111100 6
b10101011100101000000 7
b1110011100010000000 4
b111101 6
b11 5
b1111010 6
b1010111111011011000 7
b11011100110101000 4
b1111011 6
b0 5
b11110110 6
b101100100000001111 7
b11111111111111111111111111111101 5
b10 2
b101110 3
#25
b11011 !
0+
1)
b11011 4
b1100110111111110011000000 4
b0 6
b11110 5
b1000000000000000000000000000000 7
b11011 5
b1000000000000000000000000000 7
b11000 5
b1000000000000000000000000 7
b100110111111110011000000 4
b1 6
b10101 5
b10 6
b10011000000000000000000000 7
b10010 5
b100 6
b111101000000000000000000 7
b1111 5
b1000 6
b11011001000000000000000 7
b1011110111110011000000 4
b1001 6
b1100 5
b10010 6
b10000000011000000000000 7
b1001 5
b100100 6
b111110011101000000000 7
b100000100001011000000 4
b100101 6
b110 5
b1001010 6
b100000100001011000000 7
b0 4
b1001011 6
b11 5
b10010110 6
b10000100101101111000 7
b0 5
b100101100 6
b1000010001000110101 7
b11111111111111111111111111111101 5
b11 2
b0 3
#30
b1000 !
0-
0,
0)
b1000 4
b11110100001001000000000 4
b0 6
b11110 5
b1000000000000000000000000000000 7
b11011 5
b1000000000000000000000000000 7
b11000 5
b1000000000000000000000000 7
b10101 5
b1000000000000000000000 7
b10110100001001000000000 4
b1 6
b10010 5
b10 6
b10011000000000000000000 7
b11100001001000000000 4
b11 6
b1111 5
b110 6
b1111111000000000000000 7
b1100 5
b1100 6
b111010101000000000000 7
b1001 5
b11000 6
b11100001001000000000 7
b0 4
b11001 6
b110 5
b110010 6
b1110111100011000000 7
b11 5
b1100100 6
b111011001011101000 7
b0 5
b11001000 6
b11101011100011001 7
b11111111111111111111111111111101 5
b10 2
#35
b10 !
1,
0*
b10 4
b111101000010010000000 4
b0 6
b11110 5
b1000000000000000000000000000000 7
b11011 5
b1000000000000000000000000000 7
b11000 5
b1000000000000000000000000 7
b10101 5
b1000000000000000000000 7
b10010 5
b1000000000000000000 7
b110101000010010000000 4
b1 6
b1111 5
b10 6
b10011000000000000000 7
b100010000010010000000 4
b11 6
b1100 5
b110 6
b1111111000000000000 7
b10010001010010000000 4
b111 6
b1001 5
b1110 6
b1001110111000000000 7
b1000010011010000000 4
b1111 6
b110 5
b11110 6
b101011100111000000 7
b10110110011000000 4
b11111 6
b11 5
b111110 6
b10110111000111000 7
b0 5
b1111100 6
b1011010110100101 7
b1011011100011011 4
b1111101 6
b11111111111111111111111111111101 5
b1 2
b11001 3
#40
b1 !
1-
0,
b1 4
b11110100001001000000 4
b0 6
b11110 5
b1000000000000000000000000000000 7
b11011 5
b1000000000000000000000000000 7
b11000 5
b1000000000000000000000000 7
b10101 5
b1000000000000000000000 7
b10010 5
b1000000000000000000 7
b10110100001001000000 4
b1 6
b1111 5
b10 6
b10011000000000000000 7
b11100001001000000 4
b11 6
b1100 5
b110 6
b1111111000000000000 7
b1001 5
b1100 6
b111010101000000000 7
b110 5
b11000 6
b11100001001000000 7
b0 4
b11001 6
b11 5
b110010 6
b1110111100011000 7
b0 5
b1100100 6
b111011001011101 7
b11111111111111111111111111111101 5
b0 3
#45
b0 !
0-
b0 6
b11110 5
b1000000000000000000000000000000 7
b11011 5
b1000000000000000000000000000 7
b11000 5
b1000000000000000000000000 7
b10101 5
b1000000000000000000000 7
b10010 5
b1000000000000000000 7
b1111 5
b1000000000000000 7
b1100 5
b1000000000000 7
b1001 5
b1000000000 7
b110 5
b1000000 7
b11 5
b1000 7
b0 5
b1 7
b11111111111111111111111111111101 5
b0 2
